Getting Started • CDMConnector
…
Here is an example query looking at the most common conditions in the
CDM.

cdm$condition_occurrence %>% 
  count(condition_concept_id, sort = T) %>% 
  left_join(cdm$concept, by = c("condition_concept_id" = "concept_id")) %>% 
  collect() %>% 
  select("condition_concept_id", "concept_name", "n") 
#> # A tibble: 80 × 3
#>    condition_concept_id concept_name                                 n
#>                   <int> <chr>                                    <dbl>
#>  1               378001 Concussion with no loss of consciousness  1013
#>  2              4134304 Fracture subluxation of wrist              493
#>  3               260139 Acute bronchitis                          8184
#>  4                78272 Sprain of wrist                            770
#>  5                80180 Osteoarthritis                            2694
#>  6              4116491 Escherichia coli urinary tract infection   482
#>  7               440448 Appendicitis                               157
#>  8                81151 Sprain of ankle                           1915
#>  9               195588 Cystitis                                   322
#> 10              4109685 Laceration of foot                         484
#> # ℹ 70 more rows

Let’s look at the most common drugs used by patients with “Acute
viral pharyngitis”.

cdm$condition_occurrence %>% 
  filter(condition_concept_id == 4112343) %>% 
  distinct(person_id) %>% 
  inner_join(cdm$drug_exposure, by = "person_id") %>% 
  count(drug_concept_id, sort = TRUE) %>% 
  left_join(cdm$concept, by = c("drug_concept_id" = "concept_id")) %>% 
  collect() %>% 
  select("concept_name", "n") 
#> # A tibble: 113 × 2
#>    concept_name                                                 n
#>    <chr>                                                    <dbl>
#>  1 Acetaminophen 325 MG Oral Tablet                          9125
#>  2 Diphenhydramine Hydrochloride 25 MG Oral Tablet            100
#>  3 Ibuprofen 200 MG Oral Tablet                              1724
#>  4 Doxycycline Monohydrate 50 MG Oral Tablet                  458
#>  5 varicella virus vaccine                                    391
#>  6 Doxycycline Monohydrate 100 MG Oral Tablet                  60
#>  7 3 ML Amiodarone hydrochloride 50 MG/ML Prefilled Syringe   125
#>  8 2 ML Ondansetron 2 MG/ML Injection                          70
#>  9 Isoflurane 999 MG/ML Inhalant Solution                      27
#> 10 cyclosporine, modified 100 MG [Neoral]                      24
#> # ℹ 103 more rows
…
tally(cdm_100person$person) %>% pull("n")
#> [1] 100

Flatten a CDM

An OMOP CDM is a relational data model. Sometimes it is helpful to
flatten this relational structure into a “tidy” dataframe with one row
per observation. This transformation should only be done with a small
number of persons and events.

cdm_flatten(cdm_pneumonia,
            domain = c("condition", "drug", "measurement")) %>% 
  collect()
#> # A tibble: 3,892 × 8
#>    person_id observation_concept_id start_date end_date   type_concept_id domain
#>        <int>                  <int> <date>     <date>               <int> <chr> 
#>  1      2821                3006322 1950-05-18 1950-05-18            5001 measu…
#>  2      3614                3011505 2005-10-30 2005-10-30            5001 measu…
#>  3       430                4052083 1986-01-05 1986-01-05            5001 measu…
#>  4       864                4052083 2002-07-14 2002-07-14            5001 measu…
#>  5         2                3011505 2007-09-04 2007-09-04            5001 measu…
#>  6      3109                3006322 1939-09-16 1939-09-16            5001 measu…
#>  7      1954                3051031 1967-06-21 1967-06-21            5001 measu…
#>  8       419                3051031 1913-06-24 1913-06-24            5001 measu…
#>  9      1954               40758406 1967-11-18 1967-11-18            5001 measu…
#> 10      4976                3015076 1990-01-02 1990-01-02            5001 measu…
#> # ℹ 3,882 more rows
#> # ℹ 2 more variables: observation_concept_name <chr>, type_concept_name <chr>
…
