…
Here is an example query looking at the most common conditions in the
CDM.

``` r
cdm$condition_occurrence %>% 
  count(condition_concept_id, sort = T) %>% 
  left_join(cdm$concept, by = c("condition_concept_id" = "concept_id")) %>% 
  collect() %>% 
  select("condition_concept_id", "concept_name", "n") 
#> # A tibble: 80 × 3
#>    condition_concept_id concept_name                                           n
#>                   <int> <chr>                                              <dbl>
#>  1              4116491 Escherichia coli urinary tract infection             482
#>  2              4113008 Laceration of hand                                   500
#>  3              4156265 Facial laceration                                    497
#>  4              4155034 Laceration of forearm                                507
#>  5              4109685 Laceration of foot                                   484
#>  6              4094814 Bullet wound                                          46
#>  7              4048695 Fracture of vertebral column without spinal cord …    23
#>  8             40486433 Perennial allergic rhinitis                           64
#>  9              4051466 Childhood asthma                                      96
#> 10              4142905 Fracture of rib                                      263
#> # ℹ 70 more rows
```

Let’s look at the most common drugs used by patients with “Acute viral
pharyngitis”.

``` r
cdm$condition_occurrence %>% 
  filter(condition_concept_id == 4112343) %>% 
  distinct(person_id) %>% 
  inner_join(cdm$drug_exposure, by = "person_id") %>% 
  count(drug_concept_id, sort = TRUE) %>% 
  left_join(cdm$concept, by = c("drug_concept_id" = "concept_id")) %>% 
  collect() %>% 
  select("concept_name", "n") 
#> # A tibble: 113 × 2
#>    concept_name                                                                n
#>    <chr>                                                                   <dbl>
#>  1 Acetaminophen 325 MG / Hydrocodone Bitartrate 7.5 MG Oral Tablet          305
#>  2 Penicillin V Potassium 250 MG Oral Tablet                                1666
#>  3 Methylphenidate Hydrochloride 20 MG Oral Tablet                            63
#>  4 Amoxicillin 500 MG Oral Tablet                                            246
#>  5 Warfarin Sodium 5 MG Oral Tablet                                          135
#>  6 remifentanil                                                               16
#>  7 Piperacillin 4000 MG / tazobactam 500 MG Injection                         35
#>  8 {28 (Norethindrone 0.35 MG Oral Tablet) } Pack [Jolivette 28 Day]          12
#>  9 Lorazepam 2 MG/ML Injectable Solution                                       1
#> 10 {7 (Inert Ingredients 1 MG Oral Tablet) / 21 (Mestranol 0.05 MG / Nore…   997
#> # ℹ 103 more rows
```
…
## Flatten a CDM

An OMOP CDM is a relational data model. Sometimes it is helpful to
flatten this relational structure into a “tidy” dataframe with one row
per observation. This transformation should only be done with a small
number of persons and events.

``` r
cdmFlatten(cdm_pneumonia,
           domain = c("condition_occurrence", "drug_exposure", "measurement")) %>% 
  collect()
#> # A tibble: 3,892 × 8
#>    person_id observation_concept_id start_date end_date   type_concept_id domain
#>        <int>                  <int> <date>     <date>               <int> <chr> 
#>  1         2                4133840 1993-10-19 1993-10-19            5001 measu…
#>  2      2786                1127433 2003-11-17 2003-12-01        38000177 drug_…
#>  3       430                1127433 1986-01-05 1986-01-19        38000177 drug_…
#>  4      2786               19006318 1957-03-05 1957-04-02        38000177 drug_…
#>  5      2333               40220960 2007-04-03 2007-04-03        38000177 drug_…
#>  6      3639                1118084 1957-01-18 1957-01-18        38000177 drug_…
#>  7      3614               19059056 1967-12-19 1968-01-23        38000177 drug_…
#>  8       596               19059056 1949-02-11 1949-02-25        38000177 drug_…
#>  9      5185                4112343 1955-03-26 1955-04-04           32020 condi…
#> 10         2                 260139 1980-07-25 1980-08-10           32020 condi…
#> # ℹ 3,882 more rows
#> # ℹ 2 more variables: observation_concept_name <chr>, type_concept_name <chr>
```
…
